The Naming Game: an Analysis on US Baby Name Data
…
* Most persistently popular name over all decades:
* Girls: Mary
* Boys: William
* High popularity before the 1960s:
* Girls: Nancy, Margaret, Helen, Patricia, Barbara, Mary
* Boys: Thomas, Charles, Richard, William, John, Robert, James
* High popularity after the 1960s:
* Girls: Elizabeth, Amanda, Ashley, Emily
* Boys: Daniel, Matthew, Joshua, Christopher, James, Michael

5 Movie star names calculations

## # A tibble: 29,118 × 7
##    name              Name     Surname  character   title release_year tmdb_score
##    <chr>             <chr>    <chr>    <chr>       <chr>        <dbl>      <dbl>
##  1 Judy Garland      Judy     Garland  Dorothy Ga… The …         1939        7.6
##  2 Ray Bolger        Ray      Bolger   Hunk / Sca… The …         1939        7.6
##  3 Jack Haley        Jack     Haley    Hickory / … The …         1939        7.6
##  4 Bert Lahr         Bert     Lahr     Zeke / Cow… The …         1939        7.6
##  5 Margaret Hamilton Margaret Hamilton Elmira Gul… The …         1939        7.6
##  6 Frank Morgan      Frank    Morgan   Professor … The …         1939        7.6
##  7 Clara Blandick    Clara    Blandick Auntie Em   The …         1939        7.6
##  8 Charley Grapewin  Charley  Grapewin Uncle Henry The …         1939        7.6
##  9 Billie Burke      Billie   Burke    Glinda      The …         1939        7.6
## 10 Pat Walshe        Pat      Walshe   Nikko       The …         1939        7.6
## # ℹ 29,108 more rows
…
